{
  "fqName":"hp-scansend",
  "offeringVersion":1,
  "title":"cTitle",
  "shortTitle":"cShortTitle",
  "subTitle":"cSubTitle",
  "description":"cDescription",
  "termsOfUse":"cTermsOfUse",
  "isIframe": false,
  "privacyPolicy":"cPrivacyPolicy",
  "reverseProxyName":"ScanSend",
  "productTypes": [
     "MULTISCAN"
  ], 
  "links": [
    {
      "rel": "self",
      "href": "$[site.base]/api/v2/offerings/452cfbb6-7434-4efe-bd00-e335d01e6f3f"
    }
  ],
  "urls": {
    "apiPath": "/api",
    "mfpLandingPath": "/oxp/home",
    "browserLandingPath": "",
    "rootServiceUrl": "$[scansend.base]"
  },
  "metaTags": [
    "HP-SCANSEND"
  ]
}