{
  "country" : "NL",
  "name" : "Netherlands",
  "isEmailOptInDisplayed" : true,
  "isEmailOptInDefault" : false,
  "isEmailTrackingDisplayed" : true,
  "isEmailTrackingDefault" : false,
  "isSupported" : true,
  "phoneRegex" : ".*",
  "zipCodeRegex" : ".*",
  "languageSettings" : [ {
    "lang" : "NL",
    "isCountryDefault" : true,
    "chatSupport" : "https://h50203.www5.hp.com/wclweb/WCLNoWarranty.aspx?lc=nl-NL&co=hpi",
    "pdrnLink" : "http://www8.hp.com/nl/nl/personal-data-rights.html"
  },{
    "lang" : "EN",
    "isCountryDefault" : false,
    "chatSupport" : "https://h50203.www5.hp.com/wclweb/WCLNoWarranty.aspx?lc=en-US&co=hpi",
    "pdrnLink" : "http://www8.hp.com/nl/nl/personal-data-rights.html"
  },{
    "lang" : "FR",
    "isCountryDefault" : false,
    "chatSupport" : "https://h50203.www5.hp.com/wclweb/WCLNoWarranty.aspx?lc=fr-CA&co=hpi",
    "pdrnLink" : "http://www8.hp.com/nl/nl/personal-data-rights.html"
  },{
    "lang" : "DE",
    "isCountryDefault" : false,
    "chatSupport" : "https://h50203.www5.hp.com/wclweb/WCLNoWarranty.aspx?lc=de-DE&co=hpi",
    "pdrnLink" : "http://www8.hp.com/nl/nl/personal-data-rights.html"
  },{
    "lang" : "IT",
    "isCountryDefault" : false,
    "chatSupport" : "https://h50203.www5.hp.com/wclweb/WCLNoWarranty.aspx?lc=it-IT&co=hpi",
    "pdrnLink" : "http://www8.hp.com/nl/nl/personal-data-rights.html"
  },{
    "lang" : "ES",
    "isCountryDefault" : false,
    "chatSupport" : "https://h50203.www5.hp.com/wclweb/WCLNoWarranty.aspx?lc=es-ES&co=hpi",
    "pdrnLink" : "http://www8.hp.com/nl/nl/personal-data-rights.html"
  } ],
  "links" : [ {
    "rel" : "self",
    "href" : "http://localhost/country/bd4c9891-2b5e-4fda-bf60-f8f3265e9d88"
  } ]
}