{
  "createdBy": "d265f528-f20c-4529-9e7f-133b75b45941",
  "createdDate": "2014-03-25T16:29:47.000+0000",
  "lastModifiedBy": "0666df1f-8b05-4b64-8408-9b840ec889f6",
  "lastModifiedDate": "2014-03-25T16:29:52.000+0000",
  "tenantId": null,
  "name": "Account Group 2",
  "accountIds": [
    "7dfa8bd4-ad61-11e4-a496-080027b63d35",
    "7fdf2072-ad61-11e4-b827-080027b63d35",
    "7a92a666-ad61-11e4-9751-080027b63d35",
    "7c607432-ad61-11e4-b42d-080027b63d35",
    "7f20d874-ad61-11e4-8358-080027b63d35"
  ],
  "links": [
    {
      "rel": "self",
      "href": "http://localhost:9000/api/v2/accountGroups/87edaf0b-e4f0-4303-ac2b-f35fc40480e3"
    }
  ]
}
