{
  "fqName": "com.hp.eprintdriver.mac",
  "description": "cDescription",
  "version": "1.0.0.8",
  "provider": "WEBSERVER",
  "path": "https://s3.amazonaws.com/downloads.hpbizapps.com/test/HP_JetAdvantage_Pull_Print.dmg",
  "title": "cTitle",
  "operatingSystems": [
    "OSX"
  ],
  "offeringFqNames": [
    "hp-pullprint"
  ],
  "links": [
  {
    "rel": "self",
    "href": "https://localhost/api/v2/something/127c84b7-5ed5-402e-a593-01440657ce11"
  }
  ]
}
