{
  "country" : "CH",
  "name" : "Switzerland",
  "isEmailOptInDisplayed" : true,
  "isEmailOptInDefault" : false,
  "isEmailTrackingDisplayed" : true,
  "isEmailTrackingDefault" : false,
  "isSupported" : true,
  "phoneRegex" : ".*",
  "zipCodeRegex" : ".*",
  "languageSettings" : [ {
    "lang" : "DE",
    "isCountryDefault" : true,
    "chatSupport" : "https://h50203.www5.hp.com/wclweb/WCLNoWarranty.aspx?lc=de-DE&co=hpi",
    "pdrnLink" : "http://www8.hp.com/ch/de/personal-data-rights.html"
  },{
    "lang" : "FR",
    "isCountryDefault" : false,
    "chatSupport" : "https://h50203.www5.hp.com/wclweb/WCLNoWarranty.aspx?lc=fr-CA&co=hpi",
    "pdrnLink" : "http://www8.hp.com/ch/fr/personal-data-rights.html"
  },{
    "lang" : "EN",
    "isCountryDefault" : false,
    "chatSupport" : "https://h50203.www5.hp.com/wclweb/WCLNoWarranty.aspx?lc=en-US&co=hpi",
    "pdrnLink" : "http://www8.hp.com/ch/de/personal-data-rights.html"
  },{
    "lang" : "IT",
    "isCountryDefault" : false,
    "chatSupport" : "https://h50203.www5.hp.com/wclweb/WCLNoWarranty.aspx?lc=it-IT&co=hpi",
    "pdrnLink" : "http://www8.hp.com/ch/de/personal-data-rights.html"
  },{
    "lang" : "ES",
    "isCountryDefault" : false,
    "chatSupport" : "https://h50203.www5.hp.com/wclweb/WCLNoWarranty.aspx?lc=es-ES&co=hpi",
    "pdrnLink" : "http://www8.hp.com/ch/de/personal-data-rights.html"
  },{
    "lang" : "NL",
    "isCountryDefault" : false,
    "chatSupport" : "https://h50203.www5.hp.com/wclweb/WCLNoWarranty.aspx?lc=nl-NL&co=hpi",
    "pdrnLink" : "http://www8.hp.com/ch/de/personal-data-rights.html"
  } ],
  "links" : [ {
    "rel" : "self",
    "href" : "http://localhost/country/090cc50e-3485-4612-b2bb-73a86e79b1d3"
  } ]
}