{
  "fqName": "com.hp.eprintdriver.mac",
  "description": "cDescription",
  "version": "1.0.0.13",
  "provider": "WEBSERVER",
  "path": "https://s3.amazonaws.com/downloads.hpbizapps.com/HP_JetAdvantage_Pull_Print.dmg",
  "title": "cTitle",
  "operatingSystems": [
    "OSX"
  ],
  "offeringFqNames": [
    "hp-pullprint"
  ],
  "links": [
    {
      "rel": "self",
      "href": "https://localhost/api/v2/something/aec76190-3dd8-11e4-916c-0800200c9a66"
    }
  ]
}
