{
  "solutionId" : "01804c94-c6c7-11e5-9a1f-9b4d9b6c1ccf",
  "name" : "cTitle",
  "description" : "cDescription",
  "category" : "cute",
  "unitOfMeasure" : "bird",
  "units" : 8,
  "isFree" : false,
  "trialTermDays" : 0,
  "productType": "PRINT",
  "provisioningRequired": false,
  "eulaPolicy": "USER_ACCEPT",
  "launchBehavior": "NEW_TAB",
  "metaTags": [
    "HP-PUFFIN",
    "AMERICAS_DIRECT",
    "EMEA_DIRECT",
    "ASIA_OCEANIA_DIRECT",
    "OTHER_DIRECT"
  ],
  "supportedCommerceProviders": [
    "HP_INTERNAL",
    "GLIS"
  ],
  "links": [
    {
      "rel": "self",
      "href": "$[site.base]/api/v2/products/ef0d9666-c6c6-11e5-a359-e709292494e2"
    },
    {
      "rel": "productCatalog",
      "href": "$[site.base]/api/v2/productCatalogs/0a317e8a-c6c7-11e5-b5e1-4bdb19890a48"
    }
  ]
}