{
  "limit": 3,
  "offset": 0,
  "total": 5,
  "first": "http://localhost:9000/api/v2/accounts?offset=0&limit=3",
  "last": "http://localhost:9000/api/v2/accounts?offset=3&limit=3",
  "next": "http://localhost:9000/api/v2/accounts?offset=3&limit=3",
  "data": [
    {
      "createdBy": "d265f528-f20c-4529-9e7f-133b75b45941",
      "createdDate": "2014-03-25T16:29:47.000+0000",
      "lastModifiedBy": "0666df1f-8b05-4b64-8408-9b840ec889f6",
      "lastModifiedDate": "2014-03-25T16:29:52.000+0000",
      "tenantId": "25020aab-ff98-4cb0-90dd-15361af9",
      "adminContact": {
        "createdBy": "0666df1f-8b05-4b64-8408-9b840ec889f6",
        "createdDate": 1390337956000,
        "lastModifiedBy": "0666df1f-8b05-4b64-8408-9b840ec889f6",
        "lastModifiedDate": 1390337957000,
        "email": "admin1@eggnogcookie.com",
        "firstName": "CompanyAdmin1First",
        "lastName": "CompanyAdmin1Last",
        "roles": [
          "ROLE_USER"
        ],
        "status": "ACTIVE",
        "accountId": "25020aab-ff98-4cb0-90dd-15361af903cb",
        "locale": "en",
        "optedIntoEmail": false,
        "phoneNumber": "1-208-396-6000",
        "phoneExtension": null,
        "links": [
          {
            "rel": "self",
            "href": "http://localhost:9000/HPStoreWeb/api/v2/users/07fb964c-edf3-402e-9a59-65a30fa0ad00"
          }
        ]
      },
      "name": "Company #1",
      "poNumber": null,
      "crsId": null,
      "registrationId": null,
      "activatedDate": "2014-03-25T16:29:51.000+0000",
      "status": "ACTIVE",
      "crmId": null,
      "addressLine": "4268, N Spruce Meadow Avenue",
      "addressLine2": "North Five Mile Road",
      "city": "Boise",
      "state": "ID",
      "country": "US",
      "zipcode": "83701",
      "phoneNumber": "2081234567",
      "phoneExtension": "123",
      "customerId": "Abc123",
      "links": [
        {
          "rel": "self",
          "href": "http://localhost:9000/api/v2/accounts/25020aab-ff98-4cb0-90dd-15361af9"
        },
        {
          "rel": "adminContact",
          "href": "http://localhost:9000/HPStoreWeb/api/v2/users/07fb964c-edf3-402e-9a59-65a30fa0ad00"
        },
        {
          "rel": "reseller",
          "href": "http://localhost:9000/api/v2/resellers/d8c0d964-43c8-4047-9f88-f8eec2c970e3"
        }
      ]
    },
    {
      "createdBy": "d265f528-f20c-4529-9e7f-133b75b45941",
      "createdDate": "2014-03-25T16:29:47.000+0000",
      "lastModifiedBy": "0666df1f-8b05-4b64-8408-9b840ec889f6",
      "lastModifiedDate": "2014-03-25T16:29:52.000+0000",
      "tenantId": null,
      "adminContact": {
        "createdBy": "0666df1f-8b05-4b64-8408-9b840ec889f6",
        "createdDate": 1390337956000,
        "lastModifiedBy": "0666df1f-8b05-4b64-8408-9b840ec889f6",
        "lastModifiedDate": 1390337957000,
        "email": "admin2@eggnogcookie.com",
        "firstName": "CompanyAdmin2First",
        "lastName": "CompanyAdmin2Last",
        "roles": [
          "ROLE_USER"
        ],
        "status": "ACTIVE",
        "accountId": "25020aab-ff98-4cb0-90dd-15361af903cb",
        "locale": "en",
        "optedIntoEmail": false,
        "phoneNumber": "1-208-396-6000",
        "phoneExtension": null,
        "links": [
          {
            "rel": "self",
            "href": "http://localhost:9000/HPStoreWeb/api/v2/users/07fb964c-edf3-402e-9a59-65a30fa0ad00"
          }
        ]
      },
      "name": "The 2nd Company",
      "poNumber": null,
      "crsId": null,
      "registrationId": null,
      "activatedDate": "2014-03-25T16:29:51.000+0000",
      "status": "CREATED",
      "crmId": null,
      "addressLine": null,
      "addressLine2": null,
      "city": null,
      "state": null,
      "country": "US",
      "zipcode": null,
      "phoneNumber": "2081234567",
      "phoneExtension": "123",
      "customerId": null,
      "links": [
        {
          "rel": "self",
          "href": "http://localhost:9000/api/v2/accounts/87edaf0b-e4f0-4303-ac2b-f35fc40480e3"
        },
        {
          "rel": "adminContact",
          "href": "http://localhost:9000/HPStoreWeb/api/v2/users/07fb964c-edf3-402e-9a59-65a30fa0ad00"
        },
        {
          "rel": "reseller",
          "href": "http://localhost:9000/api/v2/resellers/d8c0d964-43c8-4047-9f88-f8eec2c970e3"
        }
      ]
    },
    {
      "createdBy": "d265f528-f20c-4529-9e7f-133b75b45941",
      "createdDate": "2014-03-25T16:29:47.000+0000",
      "lastModifiedBy": "0666df1f-8b05-4b64-8408-9b840ec889f6",
      "lastModifiedDate": "2014-03-25T16:29:52.000+0000",
      "tenantId": null,
      "adminContact": {
        "createdBy": "0666df1f-8b05-4b64-8408-9b840ec889f6",
        "createdDate": 1390337956000,
        "lastModifiedBy": "0666df1f-8b05-4b64-8408-9b840ec889f6",
        "lastModifiedDate": 1390337957000,
        "email": "admin3@eggnogcookie.com",
        "firstName": "CompanyAdmin3First",
        "lastName": "CompanyAdmin3Last",
        "roles": [
          "ROLE_USER"
        ],
        "status": "ACTIVE",
        "accountId": "25020aab-ff98-4cb0-90dd-15361af903cb",
        "locale": "en",
        "optedIntoEmail": false,
        "phoneNumber": "1-208-396-6000",
        "phoneExtension": null,
        "links": [
          {
            "rel": "self",
            "href": "http://localhost:9000/HPStoreWeb/api/v2/users/07fb964c-edf3-402e-9a59-65a30fa0ad00"
          }
        ]
      },
      "name": "Company the Third",
      "poNumber": null,
      "crsId": null,
      "registrationId": null,
      "activatedDate": "2014-03-25T16:29:51.000+0000",
      "status": "SUSPENDED",
      "crmId": null,
      "addressLine": null,
      "addressLine2": null,
      "city": null,
      "state": null,
      "country": "US",
      "zipcode": null,
      "phoneNumber": "2081234567",
      "phoneExtension": "123",
      "customerId": null,
      "links": [
        {
          "rel": "self",
          "href": "http://localhost:9000/api/v2/accounts/cd224ff1-7c4d-4667-ab1e-dfabb57b4379"
        },
        {
          "rel": "adminContact",
          "href": "http://localhost:9000/HPStoreWeb/api/v2/users/07fb964c-edf3-402e-9a59-65a30fa0ad00"
        },
        {
          "rel": "reseller",
          "href": "http://localhost:9000/api/v2/resellers/d8c0d964-43c8-4047-9f88-f8eec2c970e3"
        }
      ]
    }
  ]
}
