{
  "limit": 3,
  "offset": 0,
  "total": 5,
  "first": "http://localhost:9000/api/v2/devices?offset=0&limit=3&orderBy=&qs=accountId==25020aab-ff98-4cb0-90dd-15361af903cb",
  "last": "http://localhost:9000/api/v2/devices?offset=3&limit=3&orderBy=&qs=accountId==25020aab-ff98-4cb0-90dd-15361af903cb",
  "next": "http://localhost:9000/api/v2/devices?offset=3&limit=3&orderBy=&qs=accountId==25020aab-ff98-4cb0-90dd-15361af903cb",
  "data": [
    {
      "createdBy": "0666df1f-8b05-4b64-8408-9b840ec889f6",
      "createdDate": "2016-11-02T15:10:21.000+0000",
      "lastModifiedBy": "0666df1f-8b05-4b64-8408-9b840ec889f6",
      "lastModifiedDate": "2016-11-02T15:10:21.000+0000",
      "modelName": "Test Model Name 1",
      "serialNumber": "12345",
      "productNumber": "1.0.5",
      "accountId": "25020aab-ff98-4cb0-90dd-15361af903cb",
      "registrationCode": "e44b9e26-94e8-46ee-95d6-152be2aef5cb",
      "links": [ {
      "rel": "self",
      "href": "http://localhost:9000/api/v2/devices/cd224ff1-7c4d-4667-ab1e-dfabb57b4379"
      } ]
    }, {
      "createdBy": "0666df1f-8b05-4b64-8408-9b840ec889f6",
      "createdDate": "2016-11-02T15:10:21.000+0000",
      "lastModifiedBy": "0666df1f-8b05-4b64-8408-9b840ec889f6",
      "lastModifiedDate": "2016-11-02T15:10:21.000+0000",
      "modelName": "Test Model Name 2",
      "serialNumber": "54321",
      "productNumber": "1.0.6",
      "accountId": "25020aab-ff98-4cb0-90dd-15361af903cb",
      "registrationCode": "0d7a349f-38c8-49ff-a69c-cf1b93f2f94e",
      "links": [ {
      "rel": "self",
      "href": "http://localhost:9000/api/v2/devices/51662693-c104-4e39-be5b-0247f248e087"
      } ]
    }, { 
      "createdBy": "0666df1f-8b05-4b64-8408-9b840ec889f6",
      "createdDate": "2016-11-02T15:10:21.000+0000",
      "lastModifiedBy": "0666df1f-8b05-4b64-8408-9b840ec889f6",
      "lastModifiedDate": "2016-11-02T15:10:21.000+0000",
      "modelName": "Test Model Name 3",
      "serialNumber": "67890",
      "productNumber": "2.0.1",
      "accountId": "25020aab-ff98-4cb0-90dd-15361af903cb",
      "registrationCode": "aa1a99a2-b1a3-44c7-89b2-72ebb712fa4f",
      "links": [ {
      "rel": "self",
      "href": "http://localhost:9000/api/v2/devices/d8c0d964-43c8-4047-9f88-f8eec2c970e3"
      } ]
    }, {
      "createdBy": "0666df1f-8b05-4b64-8408-9b840ec889f6",
      "createdDate": "2016-11-02T15:10:21.000+0000",
      "lastModifiedBy": "0666df1f-8b05-4b64-8408-9b840ec889f6",
      "lastModifiedDate": "2016-11-02T15:10:21.000+0000",
      "modelName":"Test Model Name 4",
      "serialNumber":"09876",
      "productNumber":"2.0.2",
      "accountId": "25020aab-ff98-4cb0-90dd-15361af903cb",
      "registrationCode": "7cbf11e5-2193-41a2-a9a5-86f81cea726a",
      "links": [ {
      "rel": "self",
      "href": "http://localhost:9000/api/v2/devices/87edaf0b-e4f0-4303-ac2b-f35fc40480e3"
      } ]
    }, {
      "createdBy": "0666df1f-8b05-4b64-8408-9b840ec889f6",
      "createdDate": "2016-11-02T15:10:21.000+0000",
      "lastModifiedBy": "0666df1f-8b05-4b64-8408-9b840ec889f6",
      "lastModifiedDate": "2016-11-02T15:10:21.000+0000",
      "modelName":"Test Model Name 5",
      "serialNumber":"555555555555555555555",
      "productNumber":"3.1.0",
      "accountId": "25020aab-ff98-4cb0-90dd-15361af903cb",
      "registrationCode": "af1b71aa-3984-4975-af65-77c85e0f7081",
      "links": [ {
      "rel": "self",
      "href": "http://localhost:9000/api/v2/devices/d265f528-f20c-4529-9e7f-133b75b45941"
      } ]
    }
  ]
}
