{
  "limit": 50,
  "offset": 0,
  "total": 1,
  "first": "http://localhost:9000/api/v2/i18n?offset=0&limit=50&orderBy=&qs=source%3D%3Dinsights",
  "last": "http://localhost:9000/api/v2/i18n?offset=0&limit=50&orderBy=&qs=source%3D%3Dinsights",
  "data": [
    {
      "source": "insights",
      "locale": "en-US",
      "i18n": {
        "cTitle": "HP JetAdvantage Insights",
        "cTermsOfUse": "Do good",
        "cPrivacyPolicy": "Everything is private",
        "cSubTitle": "Understand your print environment",
        "cFleetManagementProductName": "HP JetAdvantage Insights",
        "cFleetManagementProductDescription": "Understand your print environment.",
        "cDescription": "<b>You can't manage what you can't see.</b><br>Maximize printing resources with on-demand viewing of users, jobs, and devices",
        "cShortTitle": "Understand your print environment"
      },
      "links": [
        {
          "rel": "self",
          "href": "http://localhost:9000/api/v2/i18n/59ec6f45-d341-4c7d-96d6-f28a1de919b9"
        }
      ]
    }
  ]
}
