{
  "limit":50,
  "offset":0,
  "total":1,
  "first":"http://localhost:9000/HPStoreWeb/api/v2/i18n?offset=0&limit=50&orderBy=&qs=source%3Dhp-platform%26locale%3Den-US",
  "last":"http://localhost:9000/HPStoreWeb/api/v2/i18n?offset=0&limit=50&orderBy=&qs=source%3Dhp-platform%26locale%3Den-US",
  "data":[{
    "location":"http://localhost:9000/HPStoreWeb/api/v2/i18n/b762060a-289f-11e4-820a-a6c5e4d22fb7",
    "id":"b762060a-289f-11e4-820a-a6c5e4d22fb7",
    "source": "hp-platform",
    "locale": "en-US",
    "i18n": {
        "cTitle": "HP JetAdvantage On Demand",
        "cShortTitle": "HP JetAdvantage",
        "cTermsOfService": "<h3>HP JetAdvantage On Demand Terms of Service</h3><p><b>Last modified: November 4, 2014</b></p><p>Welcome to HP JetAdvantage On Demand, provided to you by Hewlett-Packard Company (\"HP\"). HP JetAdvantage On Demand is a cloud-based service that allows users to select, install, and use printing and imaging solutions (\"Apps\").</p><p>We use the terms \"we,\" \"us\" and \"our\" to refer to HP and our affiliates, employees and agents. The terms \"you,\" \"your,\" \"user,\" or similar terms refer to any person with a User Account on the Service, including Account Admins who received their User Account when they created a Service Account, as well as anyone who has been issued a User Account by an Account Admin. \"User Account,\" \"Service,\" \"Service Account\" and \"Account Admin\" are each defined below.</p>"
    }
  }]
}
