{
  "limit":50,
  "offset":0,
  "total":1,
  "first":"http://localhost:9000/HPStoreWeb/api/v2/i18n?offset=0&limit=50&orderBy=&qs=source%3Dhp-pullprint%26locale%3Des-ES",
  "last":"http://localhost:9000/HPStoreWeb/api/v2/i18n?offset=0&limit=50&orderBy=&qs=source%3Dhp-pullprint%26locale%3Des-ES",
  "data":[
    {
      "source": "hp-pullprint",
      "locale": "es-ES",
      "i18n": {
        "cTitle": "HP JetAdvantage Private Print",
        "cShortTitle": "Private Print",
        "cSubTitle": "Print your documents from the cloud",
        "cDescription": "<b>Protect document confidentiality.</b><br>Safeguard your documents as you print to your secure cloud queue and later, simply authenticate at the control panel and print from your supported HP printer or MFP.",
        "cTermsOfUse": "Private Print Terms of Uso",
        "cPrivacyPolicy": "Defined in the EULA",
        "cProductCatalogName": "Secure Private Print Products",
        "cProductCatalogDesc": "Secure Private Print flavors available to you"
      },
      "links": [
        {
          "rel": "self",
          "href": "http://localhost:9000/HPStoreWeb/api/v2/i18n/93249266-07cd-4576-899d-65ab3f0d3f18"
        }
      ]
    }
  ]
}
