{
  "limit":50,
  "offset":0,
  "total":1,
  "first":"http://localhost:9000/HPStoreWeb/api/v2/i18n?offset=0&limit=50&orderBy=&qs=source%3Dcom.hp.eprintdriver.mac%26locale%3Dfr-CA",
  "last":"http://localhost:9000/HPStoreWeb/api/v2/i18n?offset=0&limit=50&orderBy=&qs=source%3Dcom.hp.eprintdriver.mac%26locale%3Dfr-CA",
  "data":[{
    "location":"http://localhost:9000/HPStoreWeb/api/v2/i18n/7c53c59c-3d1e-11e4-8782-164230d1df67",
    "id":"7c53c59c-3d1e-11e4-8782-164230d1df67",
    "source":"com.hp.eprintdriver.mac",
    "locale":"fr-CA",
    "i18n":{
      "cTitle": "Print Driver for Mac OS X",
      "cDescription": "Required for HP JetAdvantage Private Print"
    }
  }]
}
