{
  "limit": 3,
  "offset": 0,
  "total": 5,
  "first": "http://localhost:9000/api/v2/resellers?offset=0&limit=3",
  "last": "http://localhost:9000/api/v2/resellers?offset=3&limit=3",
  "next": "http://localhost:9000/api/v2/resellers?offset=3&limit=3",
  "data": [
    {
      "createdBy": "d265f528-f20c-4529-9e7f-133b75b45941",
      "createdDate": "2014-03-25T16:29:47.000+0000",
      "lastModifiedBy": "0666df1f-8b05-4b64-8408-9b840ec889f6",
      "lastModifiedDate": "2014-03-25T16:29:52.000+0000",
      "tenantId": null,
      "name": "Reseller 1",
      "poNumber": null,
      "crsId": null,
      "registrationId": null,
      "activatedDate": "2014-03-25T16:29:51.000+0000",
      "status": "ACTIVE",
      "crmId": null,
      "addressLine": null,
      "addressLine2": null,
      "city": null,
      "state": null,
      "country": "US",
      "zipcode": null,
      "phoneNumber": "2081234567",
      "phoneExtension": "123",
      "productIds": [],
      "paymentMethod": "CHECK",
      "links": [
        {
          "rel": "self",
          "href": "http://localhost:9000/api/v2/resellers/d8c0d964-43c8-4047-9f88-f8eec2c970e3"
        },
        {
          "rel": "adminContact",
          "href": "http://localhost:9000/api/v2/users/07fb964c-edf3-402e-9a59-65a30fa0ad00"
        }
      ]
    },
    {
      "createdBy": "d265f528-f20c-4529-9e7f-133b75b45941",
      "createdDate": "2014-03-25T16:29:47.000+0000",
      "lastModifiedBy": "0666df1f-8b05-4b64-8408-9b840ec889f6",
      "lastModifiedDate": "2014-03-25T16:29:52.000+0000",
      "tenantId": null,
      "name": "Reseller 2",
      "poNumber": null,
      "crsId": null,
      "registrationId": null,
      "activatedDate": "2014-03-25T16:29:51.000+0000",
      "status": "ACTIVE",
      "crmId": null,
      "addressLine": null,
      "addressLine2": null,
      "city": null,
      "state": null,
      "country": "US",
      "zipcode": null,
      "phoneNumber": "2081234567",
      "phoneExtension": "123",
      "productIds": [],
      "paymentMethod": "CHECK",
      "links": [
        {
          "rel": "self",
          "href": "http://localhost:9000/api/v2/resellers/87edaf0b-e4f0-4303-ac2b-f35fc40480e3"
        },
        {
          "rel": "adminContact",
          "href": "http://localhost:9000/api/v2/users/d38a66b5-b7b8-4c64-abef-51741ebc0f96"
        }
      ]
    },
    {
      "createdBy": "d265f528-f20c-4529-9e7f-133b75b45941",
      "createdDate": "2014-03-25T16:29:47.000+0000",
      "lastModifiedBy": "0666df1f-8b05-4b64-8408-9b840ec889f6",
      "lastModifiedDate": "2014-03-25T16:29:52.000+0000",
      "tenantId": null,
      "name": "Reseller 3",
      "poNumber": null,
      "crsId": null,
      "registrationId": null,
      "activatedDate": "2014-03-25T16:29:51.000+0000",
      "status": "CREATED",
      "crmId": null,
      "addressLine": null,
      "addressLine2": null,
      "city": null,
      "state": null,
      "country": "US",
      "zipcode": null,
      "phoneNumber": "2081234567",
      "phoneExtension": "123",
      "productIds": [],
      "paymentMethod": "CHECK",
      "links": [
        {
          "rel": "self",
          "href": "http://localhost:9000/api/v2/resellers/cd224ff1-7c4d-4667-ab1e-dfabb57b4379"
        },
        {
          "rel": "adminContact",
          "href": "http://localhost:9000/api/v2/users/51662693-c104-4e39-be5b-0247f248e087"
        }
      ]
    }
  ]
}