{
  "limit": 3,
  "offset": 0,
  "total": 1,
  "data": [
    {
      "createdBy": "a47c78e8-32f1-4517-9af6-19ac266d161a",
      "createdDate": "2014-05-08T21:29:51.000+0000",
      "lastModifiedBy": "a47c78e8-32f1-4517-9af6-19ac266d161a",
      "lastModifiedDate": "2014-05-08T21:29:51.000+0000",
      "tenantId": null,
      "email": "admin@company.com",
      "firstName": "Joe",
      "lastName": "Administrator",
      "roles": [
        "ROLE_USER",
        "ROLE_COMPANY_ADMIN"
      ],
      "status": "ACTIVE",
      "accountId": "25020aab-ff98-4cb0-90dd-15361af903cb",
      "locale": "en-US",
      "optedIntoEmail": false,
      "phoneNumber": "1-208-396-6000",
      "phoneExtension": null,
      "links": [
        {
          "rel": "self",
          "href": "http://localhost:9000/api/v2/users/1c4ede71-55b9-4cd1-a918-5e0329677f0f"
        },
        {
          "rel": "account",
          "href": "http://localhost:9000/api/v2/resellers/25020aab-ff98-4cb0-90dd-15361af903cb"
        }
      ]
    }
  ]
}
