{
  "limit": 3,
  "offset": 3,
  "total": 5,
  "first": "http://localhost:9000/api/v2/users?offset=0&limit=3",
  "last": "http://localhost:9000/api/v2/users?offset=3&limit=3",
  "previous": "http://localhost:9000/api/v2/users?offset=0&limit=3",
  "data": [
    {
      "createdBy": "0666df1f-8b05-4b64-8408-9b840ec889f6",
      "createdDate": 1390337956000,
      "lastModifiedBy": "0666df1f-8b05-4b64-8408-9b840ec889f6",
      "lastModifiedDate": 1390337957000,
      "email": "user4@eggnogcookie.com",
      "firstName": "User4First",
      "lastName": "User4Last",
      "roles": [
        "ROLE_USER"
      ],
      "status": "SUSPENDED",
      "accountId": "25020aab-ff98-4cb0-90dd-15361af903cb",
      "locale": "en",
      "optedIntoEmail": false,
      "phoneNumber": "1-208-396-6000",
      "phoneExtension": null,
      "links": [
        {
          "rel": "self",
          "href": "http://localhost:9000/HPStoreWeb/api/v2/users/251d9895-a07b-475d-96f9-1c3415dd0467"
        }
      ]
    },
    {
      "createdBy": "0666df1f-8b05-4b64-8408-9b840ec889f6",
      "createdDate": 1390337956000,
      "lastModifiedBy": "0666df1f-8b05-4b64-8408-9b840ec889f6",
      "lastModifiedDate": 1390337957000,
      "email": "user5@eggnogcookie.com",
      "firstName": "User5First",
      "lastName": "User5Last",
      "roles": [
        "ROLE_USER"
      ],
      "status": "ACTIVE",
      "accountId": "25020aab-ff98-4cb0-90dd-15361af903cb",
      "locale": "en",
      "optedIntoEmail": false,
      "phoneNumber": "1-208-396-6000",
      "phoneExtension": null,
      "links": [
        {
          "rel": "self",
          "href": "http://localhost:9000/HPStoreWeb/api/v2/users/1205d5e6-aa5b-4bbe-8f74-379ab3bb0ff1"
        }
      ]
    }
  ]
}