{
  "createdBy": "d265f528-f20c-4529-9e7f-133b75b45941",
  "createdDate": "2014-03-25T16:29:47.000+0000",
  "lastModifiedBy": "0666df1f-8b05-4b64-8408-9b840ec889f6",
  "lastModifiedDate": "2014-03-25T16:29:52.000+0000",
  "tenantId": null,
  "name": "Company 1",
  "poNumber": null,
  "crsId": null,
  "registrationId": null,
  "activatedDate": "2014-03-25T16:29:51.000+0000",
  "status": "ACTIVE",
  "crmId": null,
  "isResellerAccount" : false,
  "metaTags" : [ "AMERICAS_DIRECT" ],
  "addressLine": "1234 Fake Way",
  "addressLine2": "PO Box: 11",
  "city": "Awesomeville",
  "state": "AK",
  "country": "US",
  "zipcode": "12345",
  "phoneNumber": "2081234567",
  "phoneExtension": "123",
  "customerId": "cust_ID_12345",
  "links": [
    {
      "rel": "self",
      "href": "http://localhost:9000/api/v2/accounts/4faeffb1-12cb-43db-9227-93326420a175"
    },
    {
      "rel": "adminContact",
      "href": "http://localhost:9000/api/v2/users/07fb964c-edf3-402e-9a59-65a30fa0ad00"
    },
    {
      "rel": "reseller",
      "href": "http://localhost:9000/api/v2/resellers/d8c0d964-43c8-4047-9f88-f8eec2c970e3"
    }
  ]
}
