{
  "queryName": "ProductsAndUsersByOfferingAndAccountQuery",
  "productAndUsers": [
    {
      "product": {
        "solutionId": "30ea7813-28b6-40ff-af18-23a1b11b9ca7",
        "name": "cTitle",
        "description": "cDescription",
        "category": "print",
        "unitOfMeasure": "job",
        "units": 20,
        "isFree": true,
        "maxEntitlementAllowed": 6,
        "provisioningRequired": true,
        "trialTermDays": 0,
        "productType": "PRINT",
        "targetAudiences": [],
        "metaTags": [
          "EMEA_DIRECT",
          "AMERICAS_DIRECT",
          "ASIA_OCEANIA_DIRECT",
          "OTHER_DIRECT"
        ],
        "links": [
          {
            "rel": "self",
            "href": "http://localhost:9000/api/v2/products/976dcdcb-3027-45ba-9ec0-5bb30ea5f9bf"
          },
          {
            "rel": "productCatalog",
            "href": "http://localhost:9000/api/v2/productCatalogs/9beabd5c-eba3-4174-99f6-9fe524a7ac6d"
          }
        ]
      },
      "license": {
        "createdBy": "429d9fc8-2e36-474f-ad79-131cee4460dd",
        "createdDate": "2015-11-11T17:47:50.000+0000",
        "lastModifiedBy": "79a1c598-7cd7-4416-8f43-d8ace1e619c0",
        "lastModifiedDate": "2015-11-11T17:47:52.000+0000",
        "tenantId": "25020aab-ff98-4cb0-90dd-15361af903cb",
        "startDate": "2015-11-11T17:47:52.000+0000",
        "endDate": "9999-01-01T07:00:00.000+0000",
        "quantity": 1,
        "status": "ACTIVE",
        "isTrial": false,
        "links": [
          {
            "rel": "self",
            "href": "http://localhost:9000/api/v2/licenses/f0e6a14d-ad48-4ee5-af85-d1d775d480d0"
          },
          {
            "rel": "product",
            "href": "http://localhost:9000/api/v2/products/976dcdcb-3027-45ba-9ec0-5bb30ea5f9bf"
          },
          {
            "rel": "offering",
            "href": "http://localhost:9000/api/v2/offerings/10d58b02-4eaf-46ac-abf7-e82e8fc1fcb6"
          },
          {
            "rel": "account",
            "href": "http://localhost:9000/api/v2/accounts/25020aab-ff98-4cb0-90dd-15361af903cb"
          },
          {
            "rel": "subscription",
            "href": "http://localhost:9000/api/v2/subscriptions/0a73c155-e280-4203-9b91-ebf73efc4282"
          }
        ]
      },
      "userAndEntitlements": [
        {
          "user": {
            "createdBy": "67122214-0f0e-4108-ae9e-f363637bf93a",
            "createdDate": "2015-10-29T16:48:45.000+0000",
            "lastModifiedBy": "22f39bdc-154a-48fe-8a40-f220a1835b3b",
            "lastModifiedDate": "2015-10-29T16:48:46.000+0000",
            "tenantId": "25020aab-ff98-4cb0-90dd-15361af903cb",
            "roles": [
              "ROLE_USER",
              "ROLE_COMPANY_ADMIN"
            ],
            "email": "user1@eggnogcookie.com",
            "firstName": "User",
            "lastName": "1",
            "status": "ACTIVE",
            "accountId": "25020aab-ff98-4cb0-90dd-15361af903cb",
            "locale": "en-US",
            "optedIntoEmail": true,
            "optedIntoEmailTracking": true,
            "phoneNumber": "3213213211",
            "phoneExtension": "123",
            "settings": {
              "isEmailTrackingDefault": true,
              "isEmailTrackingDisplayed": false,
              "chatSupport": "https://h50203.www5.hp.com/wclweb/WCLNoWarranty.aspx?lc=en-US&co=hpi",
              "isEmailOptInDefault": true,
              "phoneRegex": "^(?!^.{15})([0-1]{1})?[-. ]?\\(?([0-9]{3})\\)?[-. ]?([0-9]{3})[-. ]?([0-9]{4})$",
              "isEmailOptInDisplayed": true,
              "zipCodeRegex": "^\\d{5}(-\\d{4})?$"
            },
            "links": [
              {
                "rel": "self",
                "href": "http://localhost:9000/api/v2/users/07fb964c-edf3-402e-9a59-65a30fa0ad00"
              },
              {
                "rel": "account",
                "href": "http://localhost:9000/api/v2/accounts/25020aab-ff98-4cb0-90dd-15361af903cb"
              }
            ]
          },
          "entitlements": [
            {
              "createdBy": "07fb964c-edf3-402e-9a59-65a30fa0ad00",
              "createdDate": "2015-10-29T16:48:49.000+0000",
              "lastModifiedBy": "07fb964c-edf3-402e-9a59-65a30fa0ad00",
              "lastModifiedDate": "2015-10-29T16:48:49.000+0000",
              "tenantId": "25020aab-ff98-4cb0-90dd-15361af903cb",
              "isEntitled": true,
              "termsAcceptedDate": "2015-10-29T16:48:49.000+0000",
              "termsAccepted": true,
              "privacyAcceptedDate": "2015-10-29T16:48:49.000+0000",
              "privacyAccepted": true,
              "restrictions": [],
              "links": [
                {
                  "rel": "self",
                  "href": "http://localhost:9000/api/v2/entitlements/3e6ae59e-1d5c-4e6d-bafe-84a1f882fc7e"
                },
                {
                  "rel": "user",
                  "href": "http://localhost:9000/api/v2/users/07fb964c-edf3-402e-9a59-65a30fa0ad00"
                },
                {
                  "rel": "license",
                  "href": "http://localhost:9000/api/v2/licenses/971d0112-5776-46ce-84c1-9e205c6eb7a7"
                },
                {
                  "rel": "product",
                  "href": "http://localhost:9000/api/v2/products/976dcdcb-3027-45ba-9ec0-5bb30ea5f9bf"
                },
                {
                  "rel": "offering",
                  "href": "http://localhost:9000/api/v2/offerings/10d58b02-4eaf-46ac-abf7-e82e8fc1fcb6"
                }
              ]
            }
          ]
        },
        {
          "user": {
            "createdBy": "22f39bdc-154a-48fe-8a40-f220a1835b3b",
            "createdDate": "2015-10-29T16:48:53.000+0000",
            "lastModifiedBy": "fa313c3e-6f08-4d13-a4b3-2c035d59271e",
            "lastModifiedDate": "2015-10-29T16:48:53.000+0000",
            "tenantId": "25020aab-ff98-4cb0-90dd-15361af903cb",
            "roles": [
              "ROLE_USER"
            ],
            "email": "user2@eggnogcookie.com",
            "firstName": "User",
            "lastName": "2",
            "status": "ACTIVE",
            "accountId": "25020aab-ff98-4cb0-90dd-15361af903cb",
            "locale": "en-US",
            "optedIntoEmail": true,
            "optedIntoEmailTracking": true,
            "phoneNumber": "3213213211",
            "phoneExtension": "123",
            "settings": {
              "isEmailTrackingDefault": true,
              "isEmailTrackingDisplayed": false,
              "chatSupport": "https://h50203.www5.hp.com/wclweb/WCLNoWarranty.aspx?lc=en-US&co=hpi",
              "isEmailOptInDefault": true,
              "phoneRegex": "^(?!^.{15})([0-1]{1})?[-. ]?\\(?([0-9]{3})\\)?[-. ]?([0-9]{3})[-. ]?([0-9]{4})$",
              "isEmailOptInDisplayed": true,
              "zipCodeRegex": "^\\d{5}(-\\d{4})?$"
            },
            "links": [
              {
                "rel": "self",
                "href": "http://localhost:9000/api/v2/users/fa313c3e-6f08-4d13-a4b3-2c035d59271e"
              },
              {
                "rel": "account",
                "href": "http://localhost:9000/api/v2/accounts/25020aab-ff98-4cb0-90dd-15361af903cb"
              }
            ]
          },
          "entitlements": [
            {
              "createdBy": "fa313c3e-6f08-4d13-a4b3-2c035d59271e",
              "createdDate": "2015-10-29T16:48:53.000+0000",
              "lastModifiedBy": "fa313c3e-6f08-4d13-a4b3-2c035d59271e",
              "lastModifiedDate": "2015-10-29T16:48:53.000+0000",
              "tenantId": "25020aab-ff98-4cb0-90dd-15361af903cb",
              "isEntitled": true,
              "termsAcceptedDate": "2015-10-29T16:48:53.000+0000",
              "termsAccepted": true,
              "privacyAcceptedDate": "2015-10-29T16:48:53.000+0000",
              "privacyAccepted": true,
              "restrictions": [],
              "links": [
                {
                  "rel": "self",
                  "href": "http://localhost:9000/api/v2/entitlements/3a21ff45-7cc0-462c-9abc-eec1b881e261"
                },
                {
                  "rel": "user",
                  "href": "http://localhost:9000/api/v2/users/fa313c3e-6f08-4d13-a4b3-2c035d59271e"
                },
                {
                  "rel": "license",
                  "href": "http://localhost:9000/api/v2/licenses/971d0112-5776-46ce-84c1-9e205c6eb7a7"
                },
                {
                  "rel": "product",
                  "href": "http://localhost:9000/api/v2/products/976dcdcb-3027-45ba-9ec0-5bb30ea5f9bf"
                },
                {
                  "rel": "offering",
                  "href": "http://localhost:9000/api/v2/offerings/10d58b02-4eaf-46ac-abf7-e82e8fc1fcb6"
                }
              ]
            }
          ]
        }
      ]
    }
  ]
}
