{
"limit": 3,
"offset": 0,
"total":3,
"first": "http://localhost:9000/api/v2/deadMessages?offset=0&limit=3",
"last": "http://localhost:9000/api/v2/deadMessages?offset=3&limit=3",
"next": "http://localhost:9000/api/v2/deadMessages?offset=3&limit=3",
"data":
[{
  "links": [
    {
      "rel": "self",
      "href": "http://localhost:9000/HPStoreWeb/api/v2/deadMessages/07fb964c-edf3-402e-9a59-65a30fa0ad00"
    }
  ],
  "createdBy": "0666df1f-8b05-4b64-8408-9b840ec889f6",
  "createdDate": 1390337956000,
  "lastModifiedBy": "0666df1f-8b05-4b64-8408-9b840ec889f6",
  "lastModifiedDate": 1390337957000,
  "canonicalName":"com.hp.ipg.services.queue.payload.AccountPayload",
  "queue":"fooQueue",
  "requeue":false,
  "payload":"{\"version\":1,\"onBehalfOf\":\"3076a1a7-619f-4442-a15f-7b1b9e6884b8\",\"causality\":\"9MBZCGbI\",\"command\":null,\"accountId\":null}",
  "toeTag": [
    {
      "errorPayload":"java.lang.Exception\n\tat test.com.hp.ipg.api.v2.databind.tests.DeadMessageDataBindTest.createTestDeadMessage(DeadMessageDataBindTest.java:88)\n\tat test.com.hp.ipg.api.v2.databind.tests.DeadMessageDataBindTest.deadMessageFullSerializationTest(DeadMessageDataBindTest.java:48)\n\tat sun.reflect.NativeMethodAccessorImpl.invoke0(Native Method)\n\tat sun.reflect.NativeMethodAccessorImpl.invoke(NativeMethodAccessorImpl.java:57)\n\tat sun.reflect.DelegatingMethodAccessorImpl.invoke(DelegatingMethodAccessorImpl.java:43)\n\tat java.lang.reflect.Method.invoke(Method.java:606)\n\tat org.testng.internal.MethodInvocationHelper.invokeMethod(MethodInvocationHelper.java:84)\n\tat org.testng.internal.MethodInvocationHelper$1.runTestMethod(MethodInvocationHelper.java:200)\n\tat org.springframework.test.context.testng.AbstractTestNGSpringContextTests.run(AbstractTestNGSpringContextTests.java:172)\n\tat sun.reflect.NativeMethodAccessorImpl.invoke0(Native Method)\n\tat sun.reflect.NativeMethodAccessorImpl.invoke(NativeMethodAccessorImpl.java:57)\n\tat sun.reflect.DelegatingMethodAccessorImpl.invoke(DelegatingMethodAccessorImpl.java:43)\n\tat java.lang.reflect.Method.invoke(Method.java:606)\n\tat org.testng.internal.MethodInvocationHelper.invokeHookable(MethodInvocationHelper.java:212)\n\tat org.testng.internal.Invoker.invokeMethod(Invoker.java:707)\n\tat org.testng.internal.Invoker.invokeTestMethod(Invoker.java:901)\n\tat org.testng.internal.Invoker.invokeTestMethods(Invoker.java:1231)\n\tat org.testng.internal.TestMethodWorker.invokeTestMethods(TestMethodWorker.java:127)\n\tat org.testng.internal.TestMethodWorker.run(TestMethodWorker.java:111)\n\tat org.testng.TestRunner.privateRun(TestRunner.java:767)\n\tat org.testng.TestRunner.run(TestRunner.java:617)\n\tat org.testng.SuiteRunner.runTest(SuiteRunner.java:334)\n\tat org.testng.SuiteRunner.runSequentially(SuiteRunner.java:329)\n\tat org.testng.SuiteRunner.privateRun(SuiteRunner.java:291)\n\tat org.testng.SuiteRunner.run(SuiteRunner.java:240)\n\tat org.testng.SuiteRunnerWorker.runSuite(SuiteRunnerWorker.java:52)\n\tat org.testng.SuiteRunnerWorker.run(SuiteRunnerWorker.java:86)\n\tat org.testng.TestNG.runSuitesSequentially(TestNG.java:1224)\n\tat org.testng.TestNG.runSuitesLocally(TestNG.java:1149)\n\tat org.testng.TestNG.run(TestNG.java:1057)\n\tat org.testng.remote.RemoteTestNG.run(RemoteTestNG.java:111)\n\tat org.testng.remote.RemoteTestNG.initAndRun(RemoteTestNG.java:204)\n\tat org.testng.remote.RemoteTestNG.main(RemoteTestNG.java:175)\n",
      "failTime": "today.000+"
    },
    {
      "errorPayload":"java.lang.Exception\n\tat test.com.hp.ipg.api.v2.databind.tests.DeadMessageDataBindTest.createTestDeadMessage(DeadMessageDataBindTest.java:88)\n\tat test.com.hp.ipg.api.v2.databind.tests.test.com.hp.ipg.api.v2.databind.teststest.com.hp.ipg.api.v2.databind.teststest.com.hp.ipg.api.v2.databind.teststest.com.hp.ipg.api.v2.databind.testsDeadMessageDataBindTest.deadMessageFullSerializationTest(DeadMessageDataBindTest.java:48)\n\tat sun.reflect.NativeMethodAccessorImpl.invoke0(Native Method)\n\tat sun.reflect.NativeMethodAccessorImpl.invoke(NativeMethodAccessorImpl.java:57)\n\tat sun.reflect.DelegatingMethodAccessorImpl.invoke(DelegatingMethodAccessorImpl.java:43)\n\tat java.lang.reflect.Method.invoke(Method.java:606)\n\tat org.testng.internal.MethodInvocationHelper.invokeMethod(MethodInvocationHelper.java:84)\n\tat org.testng.internal.MethodInvocationHelper$1.runTestMethod(MethodInvocationHelper.java:200)\n\tat org.springframework.test.context.testng.AbstractTestNGSpringContextTests.run(AbstractTestNGSpringContextTests.java:172)\n\tat sun.reflect.NativeMethodAccessorImpl.invoke0(Native Method)\n\tat sun.reflect.NativeMethodAccessorImpl.invoke(NativeMethodAccessorImpl.java:57)\n\tat sun.reflect.DelegatingMethodAccessorImpl.invoke(DelegatingMethodAccessorImpl.java:43)\n\tat java.lang.reflect.Method.invoke(Method.java:606)\n\tat org.testng.internal.MethodInvocationHelper.invokeHookable(MethodInvocationHelper.java:212)\n\tat org.testng.internal.Invoker.invokeMethod(Invoker.java:707)\n\tat org.testng.internal.Invoker.invokeTestMethod(Invoker.java:901)\n\tat org.testng.internal.Invoker.invokeTestMethods(Invoker.java:1231)\n\tat org.testng.internal.TestMethodWorker.invokeTestMethods(TestMethodWorker.java:127)\n\tat org.testng.internal.TestMethodWorker.run(TestMethodWorker.java:111)\n\tat org.testng.TestRunner.privateRun(TestRunner.java:767)\n\tat org.testng.TestRunner.run(TestRunner.java:617)\n\tat org.testng.SuiteRunner.runTest(SuiteRunner.java:334)\n\tat org.testng.SuiteRunner.runSequentially(SuiteRunner.java:329)\n\tat org.testng.SuiteRunner.privateRun(SuiteRunner.java:291)\n\tat org.testng.SuiteRunner.run(SuiteRunner.java:240)\n\tat org.testng.SuiteRunnerWorker.runSuite(SuiteRunnerWorker.java:52)\n\tat org.testng.SuiteRunnerWorker.run(SuiteRunnerWorker.java:86)\n\tat org.testng.TestNG.runSuitesSequentially(TestNG.java:1224)\n\tat org.testng.TestNG.runSuitesLocally(TestNG.java:1149)\n\tat org.testng.TestNG.run(TestNG.java:1057)\n\tat org.testng.remote.RemoteTestNG.run(RemoteTestNG.java:111)\n\tat org.testng.remote.RemoteTestNG.initAndRun(RemoteTestNG.java:204)\n\tat org.testng.remote.RemoteTestNG.main(RemoteTestNG.java:175)\n",
      "failTime": "yesterday.000+"
    }
    ]
  },
  {
    "links": [
      {
        "rel": "self",
        "href": "http://localhost:9000/HPStoreWeb/api/v2/deadMessages/fa313c3e-6f08-4d13-a4b3-2c035d59271e"
      }
    ],
    "createdBy": "0666df1f-8b05-4b64-8408-9b840ec889f6",
    "createdDate": 1390337956000,
    "lastModifiedBy": "0666df1f-8b05-4b64-8408-9b840ec889f6",
    "lastModifiedDate": 1390337957000,
    "canonicalName":"com.hp.ipg.services.queue.payload.Foo",
    "queue":"fooQueue2",
    "requeue":false,
    "payload":"{\"version\":1,\"onBehalfOf\":\"3076a1a7-619f-4442-a15f-7b1b9e6884b8\",\"causality\":\"asdfasdf\",\"command\":null,\"accountId\":null}",
    "toeTag": [
    {
      "errorPayload":"java.lang.Exception\n\tat test.com.hp.ipg.api.v2.databind.tests.DeadMessageDataBindTest.createTestDeadMessage(DeadMessageDataBindTest.java:88)\n\tat test.com.hp.ipg.api.v2.databind.tests.DeadMessageDataBindTest.deadMessageFullSerializationTest(DeadMessageDataBindTest.java:48)\n\tat sun.reflect.NativeMethodAccessorImpl.invoke0(Native Method)\n\tat sun.reflect.NativeMethodAccessorImpl.invoke(NativeMethodAccessorImpl.java:57)\n\tat sun.reflect.DelegatingMethodAccessorImpl.invoke(DelegatingMethodAccessorImpl.java:43)\n\tat java.lang.reflect.Method.invoke(Method.java:606)\n\tat org.testng.internal.MethodInvocationHelper.invokeMethod(MethodInvocationHelper.java:84)\n\tat org.testng.internal.MethodInvocationHelper$1.runTestMethod(MethodInvocationHelper.java:200)\n\tat org.springframework.test.context.testng.AbstractTestNGSpringContextTests.run(AbstractTestNGSpringContextTests.java:172)\n\tat sun.reflect.NativeMethodAccessorImpl.invoke0(Native Method)\n\tat sun.reflect.NativeMethodAccessorImpl.invoke(NativeMethodAccessorImpl.java:57)\n\tat sun.reflect.DelegatingMethodAccessorImpl.invoke(DelegatingMethodAccessorImpl.java:43)\n\tat java.lang.reflect.Method.invoke(Method.java:606)\n\tat org.testng.internal.MethodInvocationHelper.invokeHookable(MethodInvocationHelper.java:212)\n\tat org.testng.internal.Invoker.invokeMethod(Invoker.java:707)\n\tat org.testng.internal.Invoker.invokeTestMethod(Invoker.java:901)\n\tat org.testng.internal.Invoker.invokeTestMethods(Invoker.java:1231)\n\tat org.testng.internal.TestMethodWorker.invokeTestMethods(TestMethodWorker.java:127)\n\tat org.testng.internal.TestMethodWorker.run(TestMethodWorker.java:111)\n\tat org.testng.TestRunner.privateRun(TestRunner.java:767)\n\tat org.testng.TestRunner.run(TestRunner.java:617)\n\tat org.testng.SuiteRunner.runTest(SuiteRunner.java:334)\n\tat org.testng.SuiteRunner.runSequentially(SuiteRunner.java:329)\n\tat org.testng.SuiteRunner.privateRun(SuiteRunner.java:291)\n\tat org.testng.SuiteRunner.run(SuiteRunner.java:240)\n\tat org.testng.SuiteRunnerWorker.runSuite(SuiteRunnerWorker.java:52)\n\tat org.testng.SuiteRunnerWorker.run(SuiteRunnerWorker.java:86)\n\tat org.testng.TestNG.runSuitesSequentially(TestNG.java:1224)\n\tat org.testng.TestNG.runSuitesLocally(TestNG.java:1149)\n\tat org.testng.TestNG.run(TestNG.java:1057)\n\tat org.testng.remote.RemoteTestNG.run(RemoteTestNG.java:111)\n\tat org.testng.remote.RemoteTestNG.initAndRun(RemoteTestNG.java:204)\n\tat org.testng.remote.RemoteTestNG.main(RemoteTestNG.java:175)\n",
      "failTime": "today.000+"
    }
    ]  },
  {
    "links": [
      {
        "rel": "self",
        "href": "http://localhost:9000/HPStoreWeb/api/v2/deadMessages/ee38904e-4a99-47cc-aa5e-c48171dbb753"
      }
      ],
    "createdBy": "0666df1f-8b05-4b64-8408-9b840ec889f6",
    "createdDate": 1390337956000,
    "lastModifiedBy": "0666df1f-8b05-4b64-8408-9b840ec889f6",
    "lastModifiedDate": 1390337957000,
    "canonicalName":"com.hp.ipg.services.queue.payload.Bar",
    "queue":"fooQueue3",
    "requeue":false,
    "payload":"{\"version\":1,\"onBehalfOf\":\"3076a1a7-619f-4442-a15f-7b1b9e6884b8\",\"causality\":\"asdfasdf\",\"command\":null,\"accountId\":null}",
    "toeTag": [
    {
      "errorPayload":"java.lang.Exception\n\tat test.com.hp.ipg.api.v2.databind.tests.DeadMessageDataBindTest.createTestDeadMessage(DeadMessageDataBindTest.java:88)\n\tat test.com.hp.ipg.api.v2.databind.tests.DeadMessageDataBindTest.deadMessageFullSerializationTest(DeadMessageDataBindTest.java:48)\n\tat sun.reflect.NativeMethodAccessorImpl.invoke0(Native Method)\n\tat sun.reflect.NativeMethodAccessorImpl.invoke(NativeMethodAccessorImpl.java:57)\n\tat sun.reflect.DelegatingMethodAccessorImpl.invoke(DelegatingMethodAccessorImpl.java:43)\n\tat java.lang.reflect.Method.invoke(Method.java:606)\n\tat org.testng.internal.MethodInvocationHelper.invokeMethod(MethodInvocationHelper.java:84)\n\tat org.testng.internal.MethodInvocationHelper$1.runTestMethod(MethodInvocationHelper.java:200)\n\tat org.springframework.test.context.testng.AbstractTestNGSpringContextTests.run(AbstractTestNGSpringContextTests.java:172)\n\tat sun.reflect.NativeMethodAccessorImpl.invoke0(Native Method)\n\tat sun.reflect.NativeMethodAccessorImpl.invoke(NativeMethodAccessorImpl.java:57)\n\tat sun.reflect.DelegatingMethodAccessorImpl.invoke(DelegatingMethodAccessorImpl.java:43)\n\tat java.lang.reflect.Method.invoke(Method.java:606)\n\tat org.testng.internal.MethodInvocationHelper.invokeHookable(MethodInvocationHelper.java:212)\n\tat org.testng.internal.Invoker.invokeMethod(Invoker.java:707)\n\tat org.testng.internal.Invoker.invokeTestMethod(Invoker.java:901)\n\tat org.testng.internal.Invoker.invokeTestMethods(Invoker.java:1231)\n\tat org.testng.internal.TestMethodWorker.invokeTestMethods(TestMethodWorker.java:127)\n\tat org.testng.internal.TestMethodWorker.run(TestMethodWorker.java:111)\n\tat org.testng.TestRunner.privateRun(TestRunner.java:767)\n\tat org.testng.TestRunner.run(TestRunner.java:617)\n\tat org.testng.SuiteRunner.runTest(SuiteRunner.java:334)\n\tat org.testng.SuiteRunner.runSequentially(SuiteRunner.java:329)\n\tat org.testng.SuiteRunner.privateRun(SuiteRunner.java:291)\n\tat org.testng.SuiteRunner.run(SuiteRunner.java:240)\n\tat org.testng.SuiteRunnerWorker.runSuite(SuiteRunnerWorker.java:52)\n\tat org.testng.SuiteRunnerWorker.run(SuiteRunnerWorker.java:86)\n\tat org.testng.TestNG.runSuitesSequentially(TestNG.java:1224)\n\tat org.testng.TestNG.runSuitesLocally(TestNG.java:1149)\n\tat org.testng.TestNG.run(TestNG.java:1057)\n\tat org.testng.remote.RemoteTestNG.run(RemoteTestNG.java:111)\n\tat org.testng.remote.RemoteTestNG.initAndRun(RemoteTestNG.java:204)\n\tat org.testng.remote.RemoteTestNG.main(RemoteTestNG.java:175)\n",
      "failTime": "today.000+"
    }
    ]  }]
}