{
  "limit": 50,
  "offset": 0,
  "total": 1,
  "first": "http://localhost:9000/HPStoreWeb/api/v2/i18n?offset=0&limit=50&orderBy=&qs=source%3Dcom.hp.titan.adsync%26locale%3Den-US",
  "last": "http://localhost:9000/HPStoreWeb/api/v2/i18n?offset=0&limit=50&orderBy=&qs=source%3Dcom.hp.titan.adsync%26locale%3Den-US",
  "data": [
    {
      "source": "com.hp.ondemand.adupload",
      "locale": "en-US",
      "i18n": {
        "cTitle": "ActiveDirectory Upload Service",
        "cDescription": "Create and Update HP JetAdvantage users from ActiveDirectory users"
      },
      "links": [
        {
          "rel": "self",
          "href": "http://localhost:9000/HPStoreWeb/api/v2/i18n/f6b6deaf-5d9a-4fa2-8c43-2eacc8b2aa45"
        }
      ]
    }
  ]
}
