{
  "limit": 50,
  "offset": 0,
  "total": 1,
  "first": "http://localhost:9000/HPStoreWeb/api/v2/i18n?offset=0&limit=50&orderBy=&qs=source%3Dcom.hp.ondemand.mobile.android%26locale%3Den-US",
  "last": "http://localhost:9000/HPStoreWeb/api/v2/i18n?offset=0&limit=50&orderBy=&qs=source%3Dcom.hp.ondemand.mobile.android%26locale%3Den-US",
  "data": [
  {
    "source": "com.hp.ondemand.mobile.android",
    "locale": "en-US",
    "i18n": {
      "cTitle": "HP JetAdvantage On Demand Android App",
      "cDescription": "Use your Android mobile device to capture, store, manage and view content in HP JetAdvantage On Demand."
    },
    "links": [
      {
        "rel": "self",
        "href": "http://localhost:9000/api/v2/downloads/1924ecf2-6b7a-11e4-9803-0800200c9a66"
      }
    ]
  }
  ]
}