{
  "limit" : 0,
  "offset" : 0,
  "total" : 0,
  "first" : "http://localhost:9000/api/v2/serviceUsers?offset=0&limit=0&orderBy=&qs=offeringFqName%3D%3Dhp-pullprint",
  "last" : "http://localhost:9000/api/v2/serviceUsers?offset=0&limit=0&orderBy=&qs=offeringFqName%3D%3Dhp-pullprint",
  "data" : []
}