{
  "limit": 4,
  "offset": 0,
  "total": 10,
  "first": "http://localhost:9000/api/v2/users?offset=0&limit=4",
  "last": "http://localhost:9000/api/v2/users?offset=4&limit=4",
  "next": "http://localhost:9000/api/v2/users?offset=4&limit=4",
  "data": [
    {
      "createdBy": "0666df1f-8b05-4b64-8408-9b840ec889f6",
      "createdDate": 1390337956000,
      "lastModifiedBy": "0666df1f-8b05-4b64-8408-9b840ec889f6",
      "lastModifiedDate": 1390337957000,
      "email": "user1@eggnogcookie.com",
      "firstName": "User1First",
      "lastName": "User1Last",
      "roles": [
        "ROLE_USER"
      ],
      "status": "CREATED",
      "accountId": "25020aab-ff98-4cb0-90dd-15361af903cb",
      "locale": "en-US",
      "optedIntoEmail": false,
      "phoneNumber": "1-208-396-6000",
      "phoneExtension": null,
      "links": [
        {
          "rel": "self",
          "href": "http://localhost:9000/HPStoreWeb/api/v2/users/07fb964c-edf3-402e-9a59-65a30fa0ad00"
        }
      ]
    }
  ]
}
