{
  "limit": 3,
  "offset": 0,
  "total": 5,
  "first": "http://localhost:9000/api/v2/users?offset=0&limit=3",
  "last": "http://localhost:9000/api/v2/users?offset=3&limit=3",
  "next": "http://localhost:9000/api/v2/users?offset=3&limit=3",
  "data": [
    {
      "createdBy": "0666df1f-8b05-4b64-8408-9b840ec889f6",
      "createdDate": 1390337956000,
      "lastModifiedBy": "0666df1f-8b05-4b64-8408-9b840ec889f6",
      "lastModifiedDate": 1390337957000,
      "email": "user1@eggnogcookie.com",
      "firstName": "User1First",
      "lastName": "User1Last",
      "roles": [
        "ROLE_USER"
      ],
      "status": "ACTIVE",
      "accountId": "25020aab-ff98-4cb0-90dd-15361af903cb",
      "locale": "en",
      "optedIntoEmail": false,
      "phoneNumber": "1-208-396-6000",
      "phoneExtension": null,
      "links": [
        {
          "rel": "self",
          "href": "http://localhost:9000/HPStoreWeb/api/v2/users/07fb964c-edf3-402e-9a59-65a30fa0ad00"
        }
      ]
    },
    {
      "createdBy": "0666df1f-8b05-4b64-8408-9b840ec889f6",
      "createdDate": 1390337956000,
      "lastModifiedBy": "0666df1f-8b05-4b64-8408-9b840ec889f6",
      "lastModifiedDate": 1390337957000,
      "email": "user2@eggnogcookie.com",
      "firstName": "User2First",
      "lastName": "User2Last",
      "roles": [
        "ROLE_USER"
      ],
      "status": "ACTIVE",
      "accountId": "25020aab-ff98-4cb0-90dd-15361af903cb",
      "locale": "en",
      "optedIntoEmail": false,
      "phoneNumber": "1-208-396-6000",
      "phoneExtension": null,
      "links": [
        {
          "rel": "self",
          "href": "http://localhost:9000/HPStoreWeb/api/v2/users/fa313c3e-6f08-4d13-a4b3-2c035d59271e"
        }
      ]
    },
    {
      "createdBy": "0666df1f-8b05-4b64-8408-9b840ec889f6",
      "createdDate": 1390337956000,
      "lastModifiedBy": "0666df1f-8b05-4b64-8408-9b840ec889f6",
      "lastModifiedDate": 1390337957000,
      "email": "user3@eggnogcookie.com",
      "firstName": "User3First",
      "lastName": "User3Last",
      "roles": [
        "ROLE_USER"
      ],
      "status": "ACTIVE",
      "accountId": "25020aab-ff98-4cb0-90dd-15361af903cb",
      "locale": "en",
      "optedIntoEmail": false,
      "phoneNumber": "1-208-396-6000",
      "phoneExtension": null,
      "links": [
        {
          "rel": "self",
          "href": "http://localhost:9000/HPStoreWeb/api/v2/users/ee38904e-4a99-47cc-aa5e-c48171dbb753"
        }
      ]
    }
  ]
}