{
  "fqName": "com.hp.eprintdriver.win32",
  "description": "cDescription",
  "version": "1.0.6.29468",
  "provider": "WEBSERVER",
  "path": "https://s3.amazonaws.com/downloads.hpbizapps.com/HP-OnDemand-ePrint32.exe",
  "title": "cTitle",
  "operatingSystems": [
    "Windows"
  ],
  "offeringFqNames": [
    "hp-pullprint"
  ],
  "links": [
    {
      "rel": "self",
      "href": "https://localhost/api/v2/something/70772f93-1bcb-4341-9c69-6c546a38787b"
    }
  ]
}
