{
  "headers": [
    {
      "name": "Location",
      "value": "http://localhost:9000/PullPrint/"
    },
    {
      "name": "X-Expires-In",
      "value": "12"
    }
  ],
  "message": "This mock file is here so AJAX calls to login using grunt server will simulate a successful response."
}
